{
	"info": {
		"_postman_id": "8eeafd4f-1f9f-45f6-9849-63050befcd37",
		"name": "Reservations",
		"schema": "https://schema.getpostman.com/json/collection/v2.1.0/collection.json"
	},
	"item": [
		{
			"name": "localhost:8080/rest/reservations",
			"request": {
				"method": "GET",
				"header": [],
				"url": {
					"raw": "localhost:8080/rest/reservations",
					"host": [
						"localhost"
					],
					"port": "8080",
					"path": [
						"rest",
						"reservations"
					]
				},
				"description": "Vypise vsechny rezervace"
			},
			"response": []
		},
		{
			"name": "localhost:8080/rest/reservations/901",
			"request": {
				"method": "GET",
				"header": [],
				"url": {
					"raw": "localhost:8080/rest/reservations/901",
					"host": [
						"localhost"
					],
					"port": "8080",
					"path": [
						"rest",
						"reservations",
						"901"
					]
				},
				"description": "VYpise rezeravci s id = 1"
			},
			"response": []
		},
		{
			"name": "localhost:8080/rest/reservations/901/confirm",
			"request": {
				"method": "PUT",
				"header": [],
				"url": {
					"raw": "localhost:8080/rest/reservations/901/confirm",
					"host": [
						"localhost"
					],
					"port": "8080",
					"path": [
						"rest",
						"reservations",
						"901",
						"confirm"
					]
				},
				"description": "Potvrzuje rezervaci s id = 1"
			},
			"response": []
		},
		{
			"name": "localhost:8080/rest/reservations/1/cancel",
			"request": {
				"method": "DELETE",
				"header": [],
				"url": {
					"raw": "localhost:8080/rest/reservations/901/cancel",
					"host": [
						"localhost"
					],
					"port": "8080",
					"path": [
						"rest",
						"reservations",
						"901",
						"cancel"
					]
				},
				"description": "Rusi nepotvrzenou rezervaci s id = 1,\njiz potvrzenou zrusit nejde"
			},
			"response": []
		},
		{
			"name": "localhost:8080/rest/reservations",
			"request": {
				"method": "POST",
				"header": [
					{
						"key": "Content-Type",
						"name": "Content-Type",
						"value": "application/json",
						"type": "text"
					}
				],
				"body": {
					"mode": "raw",
					"raw": "    {\n        \"person\": {\"id\": 952},\n        \"projection\": {\"id\":101},\n        \"tickets\": 3\n    }"
				},
				"url": {
					"raw": "localhost:8080/rest/reservations",
					"host": [
						"localhost"
					],
					"port": "8080",
					"path": [
						"rest",
						"reservations"
					]
				},
				"description": "Vytvori novou rezervaci"
			},
			"response": []
		}
	],
	"protocolProfileBehavior": {}
}