{
	"info": {
		"_postman_id": "d8b46fd6-4883-4530-a7c7-cd83cca686db",
		"name": "Scenar mazani rezervace, ktera nepatri Userovi",
		"schema": "https://schema.getpostman.com/json/collection/v2.1.0/collection.json"
	},
	"item": [
		{
			"name": "http://localhost:8080/login?username=user2@gmail.com&password=12345678",
			"request": {
				"method": "POST",
				"header": [],
				"url": {
					"raw": "http://localhost:8080/login?username=user2@gmail.com&password=12345678",
					"protocol": "http",
					"host": [
						"localhost"
					],
					"port": "8080",
					"path": [
						"login"
					],
					"query": [
						{
							"key": "username",
							"value": "user2@gmail.com"
						},
						{
							"key": "password",
							"value": "12345678"
						}
					]
				},
				"description": "Prihlasuji se jako User2"
			},
			"response": []
		},
		{
			"name": "http://localhost:8080/login?username=user1@gmail.com&password=12345678",
			"request": {
				"method": "DELETE",
				"header": [],
				"url": {
					"raw": "http://localhost:8080/rest/reservations/901/cancel",
					"protocol": "http",
					"host": [
						"localhost"
					],
					"port": "8080",
					"path": [
						"rest",
						"reservations",
						"901",
						"cancel"
					]
				},
				"description": "Chci smazat rezervaci, ktera patri Userovi1"
			},
			"response": []
		}
	],
	"event": [
		{
			"listen": "prerequest",
			"script": {
				"id": "892aa184-1006-4240-a23e-f85061c67e57",
				"type": "text/javascript",
				"exec": [
					""
				]
			}
		},
		{
			"listen": "test",
			"script": {
				"id": "8ced8e55-b52a-4579-b480-7d3959b6d63f",
				"type": "text/javascript",
				"exec": [
					""
				]
			}
		}
	],
	"protocolProfileBehavior": {}
}